module github.com/fiber-gorm

go 1.17

require github.com/gofiber/fiber/v2 v2.20.1

require (
	github.com/andybalholm/brotli v1.0.2 // indirect
	github.com/klauspost/compress v1.13.4 // indirect
	github.com/valyala/bytebufferpool v1.0.0 // indirect
	github.com/valyala/fasthttp v1.29.0 // indirect
	github.com/valyala/tcplisten v1.0.0 // indirect
	golang.org/x/sys v0.0.0-20210806184541-e5e7981a1069 // indirect
	gorm.io/gorm v1.21.16
)

require (
	github.com/jinzhu/inflection v1.0.0 // indirect
	github.com/jinzhu/now v1.1.2 // indirect
	gorm.io/driver/sqlite v1.1.6
)

require (
	github.com/go-playground/locales v0.14.0 // indirect
	github.com/go-playground/universal-translator v0.18.0 // indirect
	github.com/go-playground/validator v9.31.0+incompatible
	github.com/go-playground/validator/v10 v10.9.0 // indirect
	github.com/leodido/go-urn v1.2.1 // indirect
	github.com/mattn/go-sqlite3 v1.14.8 // indirect
	golang.org/x/crypto v0.0.0-20210711020723-a769d52b0f97 // indirect
	golang.org/x/text v0.3.6 // indirect
)
